{
    "productName": "M5660SU",
    "productImage": "BX80_series/bx_banner_img.png",
    "heroImage": "BX80_series/bx_banner_img.png",
    "heroInfo": {
        "heroTitle": "The ultimate chore tractor.",
        "heroDesc": "Built with the power to tackle a wide range of jobs, the M5660SU brings new and enhanced features to the task, including Kubota’s easy-to-use hydraulic shuttle"
    },
    "poiIntro": {
        "text": "The M5660 Special Utility tractor is specifically designed for the farmer with 10-75 acres that requires a high performing tractor at an excellent value. The M5660SU redefines value by providing deluxe features such as hydraulic shuttle, standard rear remote valve and telescopic 3-point link ends.",
        "image": "BX80_series/bx_product_large.png"
    },
    "poiData": [
        {
            "x": "56%",
            "y": "8%",
            "copy": [
                {
                    "type": "text",
                    "content": "Kubota offers a 54\" and 60\" mid-mount mower deck option allowing you to choose which deck fits you needs best. These decks are built by Kubota and are designed to be easily mounted and dismounted by driving the tractor over the mower deck. Kubota also offers rear bagger opitons for both of these mowers."
                }
            ]
        },
        {
            "x": "58%",
            "y": "28%"
        },
        {
            "x": "45%",
            "y": "27%"
        },
        {
            "x": "29%",
            "y": "37%"
        }
    ],
    "features": [
        {
            "image": "BX80_series/features/bx_features_deluxe_operator_station.png",
            "title": "OPERATOR COMFORT",
            "copy": [
                {
                    "type": "list",
                    "content": [
                        "Spacious and comfortable operator station with ergonomic controls",
                        "High-back, adjustable suspension seat with retractable seat belt",
                        "New dash panel with LCD display – Easy-to-read gauges and indicators include a fuel consumption meter, parking indicator, ECU and fault code indicators",
                        "High capacity fuel tank (17.7 gallons) to keep you working longer between fill-ups"
                    ]
                }
            ]
        },
        {
            "image": "BX80_series/features/bx_features_deluxe_operator_station.png",
            "title": "TIGHT TURNING RADIUS",
            "copy": [
                {
                    "type": "text",
                    "content": "The M5660SU has the time tested Kubota bevel gear front axle. The bevel gear axle allows for low maintenance, exceptional turning radius and better ground clearance when compared to traditional u-joint front axles."
                }
            ]
        },
        {
            "image": "BX80_series/features/bx_features_deluxe_operator_station.png",
            "title": "POWERFUL AND CLEAN RUNNING ENGINE",
            "copy": [
                {
                    "type": "text",
                    "content": "The M5660SU takes tractor performance to the next level in power, even as it reduces emissions. The powerful 56 HP engine features Electronic Common Rail direct fuel injection for better fuel economy. For cleaner emissions, the Common Rail System (CRS) and Diesel Particulate Filter (DPF) work together to ensure compliance with the latest EPA Tier 4 final emission regulations."
                }
            ]
        },
        {
            "image": "BX80_series/features/bx_features_deluxe_operator_station.png",
            "title": "LIVE-INDEPENDENT HYDRAULIC PTO",
            "copy": [
                {
                    "type": "text",
                    "content": "The M5660SU offers smooth and self-modulating hydraulic independent PTO, allowing the operation of the PTO to work independently of the tractor’s speed or direction. The PTO brake will smoothly slow down the implement to a safe stop. The shaft can be rotated 60 degrees for easy hook-up, even while the engine is off. If you're looking for an economical alternative, M5660SU models offer an optional economy PTO. This system can save you money, as well as reduce operating noise by allowing the PTO to run at 540 rpm when the engine is at 1828 rpm instead of 2295 rpm in standard mode."
                }
            ]
        },
        {
            "image": "BX80_series/features/bx_features_deluxe_operator_station.png",
            "title": "CONSTANT RPM MANAGEMENT",
            "copy": [
                {
                    "type": "text",
                    "content": "The M5660SU is equipped with a constant rpm management system that maintains a constant rpm regardless of the terrain or load. When traveling across hilly terrain or with varying loads, simply turn the Constant RPM Management switch to \"On” and the M5660SU will maintain a constant travel speed as well as a constant PTO rpm when using PTO-driven implements. Constant rpm management improves work accuracy without the need to constantly adjust the engine throttle to maintain travel speed and PTO shaft rpm."
                }
            ]
        }
    ]
}