{
    "productName": "M6060/M7060",
    "productImage": "BX80_series/bx_banner_img.png",
    "heroImage": "BX80_series/bx_banner_img.png",
    "heroInfo": {
        "heroTitle": "Designed and built with you – and the environment – in mind.",
        "heroDesc": "The M6060/M7060 deliver optimal performance and easy operation with new clean emissions engines and enhanced ergonomics."
    },
    "poiIntro": {
        "text": "The M60 Series tractors are designed for the farmer with 10-75 acres who require more comfort and better features than those found in your typical standard tractor. The M60 Series tractors offer optimal comfort with a deluxe seat, armrests, wide area floor mat and ergonomic controls built into a console for a more refined finish.",
        "image": "BX80_series/bx_product_large.png"
    },
    "poiData": [
        {
            "x": "56%",
            "y": "8%",
            "copy": [
                {
                    "type": "text",
                    "content": "Kubota offers a 54\" and 60\" mid-mount mower deck option allowing you to choose which deck fits you needs best. These decks are built by Kubota and are designed to be easily mounted and dismounted by driving the tractor over the mower deck. Kubota also offers rear bagger opitons for both of these mowers."
                }
            ]
        },
        {
            "x": "58%",
            "y": "28%"
        },
        {
            "x": "45%",
            "y": "27%"
        },
        {
            "x": "29%",
            "y": "37%"
        }
    ],
    "features": [
        {
            "image": "BX80_series/features/bx_features_deluxe_operator_station.png",
            "title": "FUEL SAVING ECONOMY PTO",
            "copy": [
                {
                    "type": "text",
                    "content": "For economy PTO operation, change the lever to 540E position. The engine operates at lower rpm to save fuel and reduce operating noise while still turning the PTO shaft at 540 rpm. Under the economy PTO operation, 540 PTO rpm is available at 1828 engine rpm on the M6060/M7060."
                }
            ]
        },
        {
            "image": "BX80_series/features/bx_features_deluxe_operator_station.png",
            "title": "3-POINT HITCH",
            "copy": [
                {
                    "type": "text",
                    "content": "The Category I/II 3-point hitches provide fast and simple attachment of rear-mounted implements with telescopic lower link ends, standard on all models, which further shows how Kubota is a step above."
                }
            ]
        },
        {
            "image": "BX80_series/features/bx_features_deluxe_operator_station.png",
            "title": "HYDRAULIC INDEPENDENT PTO",
            "copy": [
                {
                    "type": "text",
                    "content": "Pulling, lifting, cutting or baling – the hydraulic independent PTO makes your toughest work easier. Self-modulation engagement with an Electric PTO Switch means implements like a rear cutter engage smoothly. The PTO brake engages when the clutch is shut off and securely holds the PTO shaft. The PTO clutch can be hydraulically engaged and disengaged on the go. This means mowing, operating hay equipment or spraying orchards are all made more efficient."
                }
            ]
        },
        {
            "image": "BX80_series/features/bx_features_deluxe_operator_station.png",
            "title": "ULTRA GRAND CAB",
            "copy": [
                {
                    "type": "text",
                    "content": "Stay comfortable year-round in the Ultra Grand Cab – with curved glass and curved upper windshield for more visibility. For even more comfort, the optional Air Ride seat offers exceptional seat suspension to make sure whatever path you’re on is smooth."
                }
            ]
        },
        {
            "image": "BX80_series/features/bx_features_deluxe_operator_station.png",
            "title": "GREAT MANEUVERABILITY",
            "copy": [
                {
                    "type": "text",
                    "content": "The M60 Series also has the time tested Kubota bevel gear front axle, which allows for low maintenance, exceptional turning radius and better ground clearance when compared to traditional u-joint front axles. The bevel-gear front axle provides the M60 Series with greater all-around maneuverability, whether you’re in the tight confines of a barnyard or straddling tall windrows in a hay field. The limited slip differential on the front and differential lock on the rear are standard features, offering increased stability and traction on the challenging ground conditions."
                }
            ]
        },
        {
            "image": "BX80_series/features/bx_features_deluxe_operator_station.png",
            "title": "TRANSMISSION OPTIONS",
            "copy": [
                {
                    "type": "list",
                    "content": [
                        "F8/R8 Transmissions – Four speed synchronized main shift and a high/low range supply tractors with 8 Forward and 8 Reverse speeds",
                        "F12/R12 Transmissions (Factory Option)* – Six speed synchronized main shift and a high/low range give a total of 12 Forward and 12 Reverse speeds to help find the right speed for different applications *Available on M7060",
                        "Overdrive (F12/R12 models only) – The overdrive function keeps the engine revolutions at around 1960 rpm during high speed driving for better fuel economy"
                    ]
                }
            ]
        }
    ]
}